C:\Users\陈喜喜\IdeaProjects\smbms\src\main\java\com\cxx\servlet\LogoutServlet.java
C:\Users\陈喜喜\IdeaProjects\smbms\src\main\java\com\cxx\util\Constants.java
C:\Users\陈喜喜\IdeaProjects\smbms\src\main\java\com\cxx\service\user\UserService.java
C:\Users\陈喜喜\IdeaProjects\smbms\src\main\java\com\cxx\servlet\user\UserServlet.java
C:\Users\陈喜喜\IdeaProjects\smbms\src\main\java\com\cxx\dao\BaseDao.java
C:\Users\陈喜喜\IdeaProjects\smbms\src\main\java\com\cxx\servlet\LoginServlet.java
C:\Users\陈喜喜\IdeaProjects\smbms\src\main\java\com\cxx\service\Provider\ProviderServiceImpl.java
C:\Users\陈喜喜\IdeaProjects\smbms\src\main\java\com\cxx\service\Provider\ProviderService.java
C:\Users\陈喜喜\IdeaProjects\smbms\src\main\java\com\cxx\service\role\RoleService.java
C:\Users\陈喜喜\IdeaProjects\smbms\src\main\java\com\cxx\service\user\UserServiceImpl.java
C:\Users\陈喜喜\IdeaProjects\smbms\src\main\java\com\cxx\dao\provider\ProviderDaoImpl.java
C:\Users\陈喜喜\IdeaProjects\smbms\src\main\java\com\cxx\dao\user\UserDaoImpl.java
C:\Users\陈喜喜\IdeaProjects\smbms\src\main\java\com\cxx\filter\CharacterEncodingFilter.java
C:\Users\陈喜喜\IdeaProjects\smbms\src\main\java\com\cxx\servlet\provider\ProviderServlet.java
C:\Users\陈喜喜\IdeaProjects\smbms\src\main\java\com\cxx\dao\provider\ProviderDao.java
C:\Users\陈喜喜\IdeaProjects\smbms\src\main\java\com\cxx\util\PageSupport.java
C:\Users\陈喜喜\IdeaProjects\smbms\src\main\java\com\cxx\filter\SysFilter.java
C:\Users\陈喜喜\IdeaProjects\smbms\src\main\java\com\cxx\pojo\Bill.java
C:\Users\陈喜喜\IdeaProjects\smbms\src\main\java\com\cxx\pojo\Provider.java
C:\Users\陈喜喜\IdeaProjects\smbms\src\main\java\com\cxx\dao\role\RoleDaoImpl.java
C:\Users\陈喜喜\IdeaProjects\smbms\src\main\java\com\cxx\dao\role\RoleDao.java
C:\Users\陈喜喜\IdeaProjects\smbms\src\main\java\com\cxx\pojo\User.java
C:\Users\陈喜喜\IdeaProjects\smbms\src\main\java\com\cxx\dao\user\UserDao.java
C:\Users\陈喜喜\IdeaProjects\smbms\src\main\java\com\cxx\pojo\Role.java
C:\Users\陈喜喜\IdeaProjects\smbms\src\main\java\com\cxx\service\role\RoleServiceImpl.java
